15
1
2
9 11 6 4 0 -1
9 11 3 4 0 2
tilted_haar_x2
5.302392e-002 0 -1
-2.428492e-001 7.786203e-001 
1
2
4 5 16 1 0 -1
4 5 8 1 0 2
haar_x2
-6.936376e-004 0 -1
3.139603e-001 -3.803481e-001 
1
2
0 9 6 4 0 -1
0 10 6 2 0 2
haar_y4
-5.413205e-003 0 -1
-9.563313e-001 1.104996e-001 
1
2
12 1 10 3 0 -1
12 2 10 1 0 3
haar_y3
-2.037988e-003 0 -1
1.766371e-001 -1.488339e-001 
1
2
6 11 7 6 0 -1
6 13 7 2 0 3
haar_y3
1.161428e-002 0 -1
-2.771481e-001 4.293086e-001 
1
2
20 3 3 2 0 -1
20 3 3 1 0 2
tilted_haar_x2
2.063376e-003 0 -1
-9.480526e-002 2.039616e-001 
1
2
4 3 2 3 0 -1
4 3 1 3 0 2
tilted_haar_x2
1.965340e-003 0 -1
-3.209474e-001 3.920608e-001 
1
2
11 1 4 3 0 -1
12 1 2 3 0 2
haar_x4
3.541202e-003 0 -1
2.043044e-001 -8.237901e-001 
1
2
11 1 2 3 0 -1
10 2 2 1 0 3
tilted_haar_y3
3.128150e-003 0 -1
1.419792e-001 -7.552755e-001 
1
2
8 5 8 14 0 -1
8 12 8 7 0 2
haar_y2
-1.236200e-001 0 -1
7.873335e-001 -1.917194e-001 
1
2
3 0 18 18 0 -1
3 6 18 6 0 3
haar_y3
-1.754583e-001 0 -1
6.349245e-001 -2.783932e-001 
1
3
13 3 2 20 0 -1
14 3 1 10 0 2
13 13 1 10 0 2
haar_x2_y2
-7.363559e-003 0 -1
3.606416e-001 2.544734e-002 
1
2
11 14 3 6 0 -1
12 15 1 6 0 3
tilted_haar_x3
4.739696e-003 0 -1
-2.592078e-001 6.445633e-001 
1
3
13 3 2 20 0 -1
14 3 1 10 0 2
13 13 1 10 0 2
haar_x2_y2
1.406730e-002 0 -1
1.230054e-001 -5.708947e-001 
1
3
9 3 2 20 0 -1
9 3 1 10 0 2
10 13 1 10 0 2
haar_x2_y2
5.551158e-003 0 -1
1.684086e-001 -7.201992e-001 
-9.719696e-001

4
-1
