11
1
2
4 1 6 2 0 -1
7 1 3 2 0 2
haar_x2
4.770669e-003 0 -1
-4.059286e-001 6.500919e-001 
1
2
11 11 7 6 0 -1
11 13 7 2 0 3
haar_y3
1.248222e-002 0 -1
-1.721320e-001 5.748409e-001 
1
2
12 7 4 6 0 -1
13 8 2 6 0 2
tilted_haar_x4
7.328722e-003 0 -1
-2.826221e-001 6.554692e-001 
1
2
19 3 4 5 0 -1
19 3 2 5 0 2
haar_x2
-6.960252e-003 0 -1
5.166956e-001 -1.830467e-001 
1
2
1 3 4 5 0 -1
3 3 2 5 0 2
haar_x2
-6.001642e-003 0 -1
5.977697e-001 -3.416599e-001 
1
2
12 0 12 3 0 -1
12 0 6 3 0 2
tilted_haar_y2
-1.268476e-003 0 -1
-1.679037e-001 2.456873e-001 
1
2
1 11 19 9 0 -1
1 14 19 3 0 3
haar_y3
2.627543e-002 0 -1
-3.785193e-001 4.918870e-001 
1
2
12 0 12 3 0 -1
12 0 6 3 0 2
tilted_haar_y2
1.194444e-001 0 -1
2.019060e-002 6.769127e-001 
1
2
12 0 3 12 0 -1
12 0 3 6 0 2
tilted_haar_y2
3.257757e-002 0 -1
-3.785483e-001 5.302001e-001 
1
2
12 10 6 6 0 -1
10 12 6 2 0 3
tilted_haar_x3
1.604505e-002 0 -1
-8.599393e-002 3.643647e-001 
1
2
11 16 4 1 0 -1
11 16 2 1 0 2
tilted_haar_x2
-6.814572e-003 0 -1
7.754337e-001 -2.525835e-001 
-1.238959e+000

-1
-1
